%YAML 1.1
%TAG !u! tag:unity3d.com,2011:
--- !u!221 &22100000
AnimatorOverrideController:
  m_ObjectHideFlags: 0
  m_PrefabParentObject: {fileID: 0}
  m_PrefabInternal: {fileID: 0}
  m_Name: Enemy Strong
  m_Controller: {fileID: 9100000, guid: 6bd1327e05376aa4492bb1b2cf6de76b, type: 2}
  m_Clips:
  - m_OriginalClip: {fileID: 7400000, guid: 11545f7ab6b7c524ea8501485763f52b, type: 2}
    m_OverrideClip: {fileID: 7400000, guid: ed718ba3890cf6e44960a2eb7d3d01af, type: 2}
  - m_OriginalClip: {fileID: 7400000, guid: eb8bb42b9e01e0548bb0e5200d30fd92, type: 2}
    m_OverrideClip: {fileID: 7400000, guid: bdf1ccaf68b472f48b80254b8c7a3de8, type: 2}
